%YAML 1.1
%TAG !u! tag:unity3d.com,2011:
--- !u!114 &11400000
MonoBehaviour:
  m_ObjectHideFlags: 0
  m_CorrespondingSourceObject: {fileID: 0}
  m_PrefabInternal: {fileID: 0}
  m_GameObject: {fileID: 0}
  m_Enabled: 1
  m_EditorHideFlags: 0
  m_Script: {fileID: -1357528570, guid: e98d45d69e2c4936a7382af00fd45e58, type: 3}
  m_Name: Material Palette
  m_EditorClassIdentifier: 
  array:
  - {fileID: 2100000, guid: c4a02be6bc512f44e8984d413840b910, type: 2}
  - {fileID: 2100000, guid: 3a493559229f6ee44bd45fef313cde13, type: 2}
  - {fileID: 2100000, guid: ad5eee8dc55d47b4da47231b3d7f863b, type: 2}
  - {fileID: 2100000, guid: 386bc2d49c7be6449928390aec6d460b, type: 2}
  - {fileID: 2100000, guid: 926a07303207ff84a8a3c6fa68a82c7c, type: 2}
  - {fileID: 2100000, guid: 44811dd2ba2dfb94d8c2dedc39345394, type: 2}
  - {fileID: 2100000, guid: cc7178b3916222442813e8a41623b1fa, type: 2}
  - {fileID: 2100000, guid: 47f4531c58a214041a15b5e08623b0a0, type: 2}
  - {fileID: 2100000, guid: 8eed1ad0a4bf18344afa24d0718eca64, type: 2}
  - {fileID: 2100000, guid: 4f43732f18778eb44a3a253dabba5025, type: 2}
  - {fileID: 2100000, guid: 51442f2c5f759ca4280855d47f41a5ed, type: 2}
  - {fileID: 2100000, guid: 6da7a26b90b4e4b4e91b9bbbcbf9ab46, type: 2}
  - {fileID: 2100000, guid: e246fc29b3e08734d8a012a73c77bf4c, type: 2}
  - {fileID: 2100000, guid: 17463bfae25ea80469d658f3ce3cf5de, type: 2}
  - {fileID: 2100000, guid: 65decda614450c3439ed86bef5f85af4, type: 2}
  - {fileID: 2100000, guid: fa4f6a5d7628de540a5f27a6408e68ad, type: 2}
  - {fileID: 2100000, guid: 22b7948928c24384cb1e91048276196b, type: 2}
  - {fileID: 2100000, guid: 16a6d0b80543f364497590115fda1b77, type: 2}
  - {fileID: 2100000, guid: a7133df01ec76ba42bbdd8c4424120cf, type: 2}
  - {fileID: 2100000, guid: 4ff8c95aa64645b429fd8036663e949a, type: 2}
  - {fileID: 2100000, guid: 0cbe43f118b28e14d9e7c8d6bd173859, type: 2}
  - {fileID: 2100000, guid: 218f8000cc59a07448e6c2b4b63ff19b, type: 2}
  - {fileID: 2100000, guid: 5bf4915db3b951741a95374b7d0bec71, type: 2}
  - {fileID: 2100000, guid: f608413c90c18e647a734c52b960c257, type: 2}
  - {fileID: 2100000, guid: 7c2f6a64563dd6a4291ea1e69cd21954, type: 2}
  - {fileID: 2100000, guid: d39aefe3e750d67459fad39931a5fe34, type: 2}
  - {fileID: 2100000, guid: 45585580571b56d4697548932092640e, type: 2}
  - {fileID: 2100000, guid: 4c0c5b4ff414a6743a1e8612aca7abb9, type: 2}
  - {fileID: 2100000, guid: 5fdf2fa56595c284dbd3f78468d29037, type: 2}
  - {fileID: 2100000, guid: f8dcf9166df29e1468e723422b892c08, type: 2}
  - {fileID: 2100000, guid: 71289d6c6b5137748b5d39ed1206f3ee, type: 2}
  - {fileID: 2100000, guid: d91527cf3f40db54f9df96d59ad1ec82, type: 2}
  - {fileID: 2100000, guid: ac4c6b9be39890648aef3795b7a79e0f, type: 2}
  - {fileID: 2100000, guid: 66f234baff7dea347b8094729a763537, type: 2}
  - {fileID: 2100000, guid: 055baaf0c70e29346a8dacac538ab415, type: 2}
  - {fileID: 2100000, guid: d970b6a2960735342b91965548eac5bd, type: 2}
  - {fileID: 2100000, guid: cd764b80a006cbc46ab4a5cf447ece85, type: 2}
  - {fileID: 2100000, guid: b6ff669edc1c39d40840a6cf0141523a, type: 2}
  - {fileID: 2100000, guid: ec5bddeb38b17b949841b22fd9fcddf0, type: 2}
  - {fileID: 2100000, guid: 9095c6ac075bbd64a9f153bbddf919ac, type: 2}
  - {fileID: 2100000, guid: f8028deeca7d4af4daf7072592d6d80a, type: 2}
  - {fileID: 2100000, guid: 06de4e9c8b8e9034d837088883271a61, type: 2}
  - {fileID: 0}
  - {fileID: 0}
  - {fileID: 0}
  - {fileID: 0}
