%YAML 1.1
%TAG !u! tag:unity3d.com,2011:
--- !u!78 &1
TagManager:
  serializedVersion: 2
  tags:
  - Floor
  - Target
  - Cam
  - InteractZone
  - Pistol
  - Shotgun
  - MakeThisTagNPCName
  - 2
  - Two
  - Cam1
  - Cam2
  - Door
  - NPC1
  - NPC2
  - NPC3
  - NPC4
  - Key
  - Floor 1
  - Floor 2
  - Floor 3
  - Floor 4
  - Floor 5
  - Floor 6
  - Floor 7
  - Floor 8
  - Floor 9
  - Floor 10
  - Floor 11
  - Floor 12
  - Floor 13
  - Floor 14
  - Floor 15
  - Floor 16
  - Floor 17
  - Floor 18
  - Floor 19
  - Floor 20
  - Floor 21
  layers:
  - Default
  - TransparentFX
  - Ignore Raycast
  - 
  - Water
  - UI
  - 
  - 
  - PostProcessing
  - Enemy
  - 
  - 
  - 
  - 
  - 
  - 
  - 
  - 
  - 
  - 
  - 
  - 
  - 
  - 
  - 
  - 
  - 
  - 
  - 
  - 
  - 
  - 
  m_SortingLayers:
  - name: Default
    uniqueID: 0
    locked: 0
