%YAML 1.1
%TAG !u! tag:unity3d.com,2011:
--- !u!21 &2100000
Material:
  serializedVersion: 6
  m_ObjectHideFlags: 0
  m_CorrespondingSourceObject: {fileID: 0}
  m_PrefabInternal: {fileID: 0}
  m_Name: Pipe 4 PlasticRubber
  m_Shader: {fileID: 8, guid: 0000000000000000f000000000000000, type: 0}
  m_ShaderKeywords: 
  m_LightmapFlags: 4
  m_EnableInstancingVariants: 0
  m_DoubleSidedGI: 0
  m_CustomRenderQueue: -1
  stringTagMap: {}
  disabledShaderPasses: []
  m_SavedProperties:
    serializedVersion: 3
    m_TexEnvs:
    - _BumpMap:
        m_Texture: {fileID: 2800000, guid: 9c60e37d599fa1f4c846295a9b2f5471, type: 3}
        m_Scale: {x: 1, y: 1}
        m_Offset: {x: 0, y: 0}
    - _Cube:
        m_Texture: {fileID: 0}
        m_Scale: {x: 1, y: 1}
        m_Offset: {x: 0, y: 0}
    - _MainTex:
        m_Texture: {fileID: 2800000, guid: 03e5c61c4f91d1a4195916384f2dfc20, type: 3}
        m_Scale: {x: 1, y: 1}
        m_Offset: {x: 0, y: 0}
    - _ParallaxMap:
        m_Texture: {fileID: 2800000, guid: b8ce348fc33d56840aa90a9c865c1ea8, type: 3}
        m_Scale: {x: 1, y: 1}
        m_Offset: {x: 0, y: 0}
    m_Floats:
    - _EdgeAlpha: 0
    - _FrezFalloff: 4
    - _FrezPow: 0.25
    - _Gloss: 0.09615385
    - _Metalics: 0.5
    - _Parallax: 0.009477611
    - _Reflection: 0.115384616
    - _Shininess: 3.0000007
    m_Colors:
    - _Color: {r: 0.60294116, g: 0.60294116, b: 0.60294116, a: 1}
    - _SpecColor: {r: 0.5, g: 0.5, b: 0.5, a: 1}
